[
  {
    "id": "src.main",
    "name": "main",
    "stats": {
      "size": 43909,
      "gzipSize": 10408
    }
  },
  {
    "id": "src.async",
    "name": "async",
    "stats": {
      "size": 11689,
      "gzipSize": 3811
    }
  },
  {
    "id": "node_modules.main",
    "name": "node_modules [main]",
    "stats": {
      "size": 126381,
      "gzipSize": 35802
    }
  },
  {
    "id": "node_modules.async",
    "name": "node_modules [async]",
    "stats": {
      "size": 1354913,
      "gzipSize": 381960
    }
  },
  {
    "id": "atlaskit.core.main",
    "name": "main",
    "stats": {
      "size": 152248,
      "gzipSize": 33772
    }
  },
  {
    "id": "atlaskit.core.async",
    "name": "async",
    "stats": {
      "size": 14929,
      "gzipSize": 2702
    }
  },
  {
    "id": "atlaskit.media.main",
    "name": "main",
    "stats": {
      "size": 112064,
      "gzipSize": 25575
    }
  },
  {
    "id": "atlaskit.media.async",
    "name": "async",
    "stats": {
      "size": 111306,
      "gzipSize": 27769
    }
  },
  {
    "id": "combined.main",
    "name": "main",
    "stats": {
      "size": 433563,
      "gzipSize": 107574
    }
  },
  {
    "id": "combined.async",
    "name": "async",
    "stats": {
      "size": 1492403,
      "gzipSize": 416806
    }
  }
]