[
  {
    "id": "src.main",
    "name": "main",
    "stats": {
      "size": 31604,
      "gzipSize": 6686
    }
  },
  {
    "id": "combined.main",
    "name": "main",
    "stats": {
      "size": 31604,
      "gzipSize": 6686
    }
  }
]