[
  {
    "id": "src.main",
    "name": "main",
    "stats": {
      "size": 55421,
      "gzipSize": 13457
    }
  },
  {
    "id": "node_modules.main",
    "name": "node_modules [main]",
    "stats": {
      "size": 60524,
      "gzipSize": 18800
    }
  },
  {
    "id": "combined.main",
    "name": "main",
    "stats": {
      "size": 115331,
      "gzipSize": 31601
    }
  }
]