[
  {
    "id": "src.main",
    "name": "main",
    "stats": {
      "size": 49591,
      "gzipSize": 12540
    }
  },
  {
    "id": "src.async",
    "name": "async",
    "stats": {
      "size": 6709,
      "gzipSize": 1941
    }
  },
  {
    "id": "node_modules.main",
    "name": "node_modules [main]",
    "stats": {
      "size": 1161574,
      "gzipSize": 382734
    }
  },
  {
    "id": "node_modules.async",
    "name": "node_modules [async]",
    "stats": {
      "size": 191403,
      "gzipSize": 48793
    }
  },
  {
    "id": "atlaskit.core.main",
    "name": "main",
    "stats": {
      "size": 153919,
      "gzipSize": 36641
    }
  },
  {
    "id": "atlaskit.core.async",
    "name": "async",
    "stats": {
      "size": 164900,
      "gzipSize": 33022
    }
  },
  {
    "id": "atlaskit.editor.main",
    "name": "main",
    "stats": {
      "size": 93723,
      "gzipSize": 22782
    }
  },
  {
    "id": "atlaskit.editor.async",
    "name": "async",
    "stats": {
      "size": 2141,
      "gzipSize": 886
    }
  },
  {
    "id": "atlaskit.elements.main",
    "name": "main",
    "stats": {
      "size": 34611,
      "gzipSize": 8853
    }
  },
  {
    "id": "atlaskit.elements.async",
    "name": "async",
    "stats": {
      "size": 15499,
      "gzipSize": 5131
    }
  },
  {
    "id": "atlaskit.media.async",
    "name": "async",
    "stats": {
      "size": 281503,
      "gzipSize": 64372
    }
  },
  {
    "id": "atlaskit.people-and-teams.main",
    "name": "main",
    "stats": {
      "size": 84080,
      "gzipSize": 14862
    }
  },
  {
    "id": "atlaskit.teamwork-ecosystem.async",
    "name": "async",
    "stats": {
      "size": 625,
      "gzipSize": 367
    }
  },
  {
    "id": "combined.main",
    "name": "main",
    "stats": {
      "size": 1573129,
      "gzipSize": 477508
    }
  },
  {
    "id": "combined.async",
    "name": "async",
    "stats": {
      "size": 659656,
      "gzipSize": 158176
    }
  }
]