[
  {
    "id": "src.main",
    "name": "main",
    "stats": {
      "size": 85584,
      "gzipSize": 15566
    }
  },
  {
    "id": "node_modules.main",
    "name": "node_modules [main]",
    "stats": {
      "size": 139319,
      "gzipSize": 39372
    }
  },
  {
    "id": "atlaskit.core.main",
    "name": "main",
    "stats": {
      "size": 125764,
      "gzipSize": 30335
    }
  },
  {
    "id": "combined.main",
    "name": "main",
    "stats": {
      "size": 349456,
      "gzipSize": 86423
    }
  }
]