[
  {
    "id": "src.main",
    "name": "main",
    "stats": {
      "size": 3065,
      "gzipSize": 1353
    }
  },
  {
    "id": "node_modules.main",
    "name": "node_modules [main]",
    "stats": {
      "size": 60674,
      "gzipSize": 18859
    }
  },
  {
    "id": "atlaskit.editor.main",
    "name": "main",
    "stats": {
      "size": 34677,
      "gzipSize": 8850
    }
  },
  {
    "id": "combined.main",
    "name": "main",
    "stats": {
      "size": 95144,
      "gzipSize": 27521
    }
  }
]